{
  "englishText": "Deng Zhaobao, from Jianyang in Fujian province, made his living\nas a roving peddler. One day, he was on his way to Da'an in\nChong'an county to sell four piglets. When he reached the top of\nMa'an Hill, he encountered a crook who told him he was interested\nin buying pigs. Deng thought: Here we are on a remote mountain path\nwith little traffic, far from any town. What's this guy doing trying to\nbuy pigs?\nWarily, he asked where the man lived.\n“Just up ahead, in Ma'an,” the crook replied.\n“If you want to buy, let's go complete the transaction at your\nhouse.”\n“But I'm on my way to the county seat. How about this: take\none pig out of its cage so that I can inspect it. If it looks good, we\ncan settle on a price, and I'll go home and weigh out the silver. Oth-\nerwise I'd be going out of my way for no reason.”\nThis seemed reasonable, so Deng agreed and took out a pig\nto show him. Holding the pig by its tail, the crook put it on the\nground and examined it closely. Then he intentionally released his\ngrasp and the pig bolted. Feigning alarm, he cried out, “Oh no!\nOh no!” and hurried after the pig in an attempt to retrieve it—or\nso it seemed. In fact, he was driving the pig away. Seeing the pig\ngetting farther and farther afield, Deng recklessly sprinted after it.\nLittle did he know that he was playing right into the hands of the\ncrook, who watched Deng give chase. Once Deng was some two\nor three hundred paces away, the crook reached inside a cage and\ndrew out another pig, then kicked over the other two cages. As the\nlast two pigs scurried off, he hollered:\n“Thank you kindly! Happy hunting!”\nDeng wanted to go after him, but with three pigs on the loose\nhe worried that he couldn't catch both pigs and thief. As the crook\ngot farther and farther out of reach, Deng could only rail and curse.\nFortunately, he was able to herd all three pigs back together and into\ntheir cages. Bitterly, he continued on his way.",
  "englishText2": "The effect is significant because it demonstrates that light cannot be explained purely as a wave phenomenon.[3] Thomson scattering, the classical theory of an electromagnetic wave scattered by charged particles, cannot explain shifts in wavelength at low intensity: classically, light of sufficient intensity for the electric field to accelerate a charged particle to a relativistic speed will cause radiation-pressure recoil and an associated Doppler shift of the scattered light,[4] but the effect would become arbitrarily small at sufficiently low light intensities regardless of wavelength. Thus, if we are to explain low-intensity Compton scattering, light must behave as if it consists of particles. Or the assumption that the electron can be treated as free is invalid resulting in the effectively infinite electron mass equal to the nuclear mass (see e.g. the comment below on elastic scattering of X-rays being from that effect). Compton's experiment convinced physicists that light can be treated as a stream of particle-like objects (quanta called photons), whose energy is proportional to the light wave's frequency.",
  "englishBible": "1:1 There was a man in the land of Uz, whose name was Job; and that man was perfect and upright, and one that feared God, and eschewed evil. \n1:2 And there were born unto him seven sons and three daughters. \n1:3 His substance also was seven thousand sheep, and three thousand camels, and five hundred yoke of oxen, and five hundred she asses, and a very great household; so that this man was the greatest of all the men of the east. \n1:4 And his sons went and feasted in their houses, every one his day; and sent and called for their three sisters to eat and to drink with them. \n1:5 And it was so, when the days of their feasting were gone about, that Job sent and sanctified them, and rose up early in the morning, and offered burnt offerings according to the number of them all: for Job said, It may be that my sons have sinned, and cursed God in their hearts. Thus did Job continually. \n1:6 Now there was a day when the sons of God came to present themselves before the LORD, and Satan came also among them. \n1:7 And the LORD said unto Satan, Whence comest thou? Then Satan answered the LORD, and said, From going to and fro in the earth, and from walking up and down in it. \n1:8 And the LORD said unto Satan, Hast thou considered my servant Job, that there is none like him in the earth, a perfect and an upright man, one that feareth God, and escheweth evil? \n1:9 Then Satan answered the LORD, and said, Doth Job fear God for nought? \n1:10 Hast not thou made an hedge about him, and about his house, and about all that he hath on every side? thou hast blessed the work of his hands, and his substance is increased in the land. \n1:11 But put forth thine hand now, and touch all that he hath, and he will curse thee to thy face. \n1:12 And the LORD said unto Satan, Behold, all that he hath is in thy power; only upon himself put not forth thine hand. So Satan went forth from the presence of the LORD. \n1:13 And there was a day when his sons and his daughters were eating and drinking wine in their eldest brother's house: \n1:14 And there came a messenger unto Job, and said, The oxen were plowing, and the asses feeding beside them: \n1:15 And the Sabeans fell upon them, and took them away; yea, they have slain the servants with the edge of the sword; and I only am escaped alone to tell thee. \n1:16 While he was yet speaking, there came also another, and said, The fire of God is fallen from heaven, and hath burned up the sheep, and the servants, and consumed them; and I only am escaped alone to tell thee.",
  "alphabet": ["A", "B", "C", "D", "E", "F", "G", "H", "I", "J", "K", "L", "M", "N", "O", "P", "Q", "R", "S", "T", "U", "V", "W", "X", "Y", "Z"],
  "vigenerCryptogram": "lmygxchriffrlvmgklegniihvzbrefxetqsmticixjnvglmibtcihuufxklvlkcatkcfbtyfdvfwxetxkvmybmcmbtcfmzlrgjelvyenezmroqxhvyufbbihkvgbwfbaxjnbdfobmiuftzhskrtinbhrgzwbwpwutkeexmhnlkyaxjwugvnytbiitmfatkoffvnytjnhemhrcyfhujczirnexmenfvhaxdxbfliqxylnormrgvfvwjelufdckrmgtiihhujnwecmtjiotihhgrjnwchrseuzricmxesfmiiwmrgqhcyigrxeszwugvmgkvtrgpwulfvftyyzfzfvhegrmioxkpwuefplvyjehgigkvvlictaxglvifpbwecpaambnqufhssilvwuwiounmiqhujnwecpaeuchmlpalxaxjybmvpvkrtrfuifopwunklbuqprseypbjnrgpezxeensvfvlcypakumvzmgbihlofxchqprweihmglhmfelictrgjelvylrdjyqrdmgtmcqevgmtjnvgvhwxuyaiiuirdtikrxybjnrfglrichrgpmrgrhrgzfvgrbbkrwuiiogkqcqhjnxtciittyeirxytiimuvbahlmr",
  "letterFreq": {
    "A": 0.08167,
    "B": 0.01492,
    "C": 0.02782,
    "D": 0.04253,
    "E": 0.12702,
    "F": 0.02228,
    "G": 0.02015,
    "H": 0.06094,
    "I": 0.06966,
    "J": 0.00153,
    "K": 0.00772,
    "L": 0.04025,
    "M": 0.02406,
    "N": 0.06749,
    "O": 0.07507,
    "P": 0.01929,
    "Q": 0.00095,
    "R": 0.05987,
    "S": 0.06327,
    "T": 0.09056,
    "U": 0.02758,
    "V": 0.00978,
    "W": 0.02360,
    "X": 0.00150,
    "Y": 0.01974,
    "Z": 0.00074
  }
}